{
  "labels": [
    {
      "lang": "en",
      "desc": "Get Hierarchy",
      "code": "LBL_GET_HIERARCHY"
    },
    {
      "lang": "en",
      "desc": "Key",
      "code": "LBL_KEY"
    },
    {
      "lang": "en",
      "desc": "Launch Screen",
      "code": "LBL_LAUNCH_SCREEN"
    },
    {
      "lang": "en",
      "desc": "Model Name",
      "code": "LBL_MODEL_NAME"
    },
    {
      "lang": "en",
      "desc": "Model Type",
      "code": "LBL_MODEL_TYPE"
    },
    {
      "lang": "en",
      "desc": "New",
      "code": "LBL_NEW"
    },
    {
      "lang": "en",
      "desc": "Search",
      "code": "LBL_SEARCH"
    },
    {
      "lang": "en",
      "desc": "Search Criteria",
      "code": "LBL_SEARCH_CRITERIA"
    },
    {
      "lang": "en",
      "desc": "Search Results",
      "code": "LBL_SEARCH_RESULTS"
    },
    {
      "lang": "en",
      "desc": "State",
      "code": "LBL_STATE"
    },
    {
      "lang": "en",
      "desc": "Status",
      "code": "LBL_STATUS"
    }
  ],
  "type": "LABELS",
  "name": "LABELS"
}